C:\Users\anonymous\git\crowdfunder\src\main\java\fr\imie\crowdfunder\dao\jpa\JpaDao.java
C:\Users\anonymous\git\crowdfunder\src\main\java\fr\imie\crowdfunder\servlet\AddCategoryServlet.java
C:\Users\anonymous\git\crowdfunder\src\main\java\fr\imie\crowdfunder\servlet\ListCategoryServlet.java
C:\Users\anonymous\git\crowdfunder\src\main\java\fr\imie\crowdfunder\servlet\ShowProjectServlet.java
C:\Users\anonymous\git\crowdfunder\src\main\java\fr\imie\crowdfunder\rest\ProjectResource.java
C:\Users\anonymous\git\crowdfunder\src\main\java\fr\imie\crowdfunder\filter\AuthenticateFilter.java
C:\Users\anonymous\git\crowdfunder\src\main\java\fr\imie\crowdfunder\servlet\RemoveCategoryServlet.java
C:\Users\anonymous\git\crowdfunder\src\main\java\fr\imie\crowdfunder\dao\DaoFactory.java
C:\Users\anonymous\git\crowdfunder\src\main\java\fr\imie\crowdfunder\dao\jpa\JpaUserDao.java
C:\Users\anonymous\git\crowdfunder\src\main\java\fr\imie\crowdfunder\entity\BaseEntity.java
C:\Users\anonymous\git\crowdfunder\src\main\java\fr\imie\crowdfunder\rest\CategoryResource.java
C:\Users\anonymous\git\crowdfunder\src\main\java\fr\imie\crowdfunder\servlet\EditUserServlet.java
C:\Users\anonymous\git\crowdfunder\src\main\java\fr\imie\crowdfunder\servlet\HomeServlet.java
C:\Users\anonymous\git\crowdfunder\src\main\java\fr\imie\crowdfunder\dao\jpa\JpaProjectDao.java
C:\Users\anonymous\git\crowdfunder\src\main\java\fr\imie\crowdfunder\entity\Project.java
C:\Users\anonymous\git\crowdfunder\src\main\java\fr\imie\crowdfunder\dao\UserDao.java
C:\Users\anonymous\git\crowdfunder\src\main\java\fr\imie\crowdfunder\rest\UserResource.java
C:\Users\anonymous\git\crowdfunder\src\main\java\fr\imie\crowdfunder\servlet\EditCategoryServlet.java
C:\Users\anonymous\git\crowdfunder\src\main\java\fr\imie\crowdfunder\servlet\ListProjectServlet.java
C:\Users\anonymous\git\crowdfunder\src\main\java\fr\imie\crowdfunder\rest\RestService.java
C:\Users\anonymous\git\crowdfunder\src\main\java\fr\imie\crowdfunder\servlet\LogoutServlet.java
C:\Users\anonymous\git\crowdfunder\src\main\java\fr\imie\crowdfunder\util\PersistenceManager.java
C:\Users\anonymous\git\crowdfunder\src\main\java\fr\imie\crowdfunder\servlet\EditProjectServlet.java
C:\Users\anonymous\git\crowdfunder\src\main\java\fr\imie\crowdfunder\dao\jpa\JpaCategoryDao.java
C:\Users\anonymous\git\crowdfunder\src\main\java\fr\imie\crowdfunder\servlet\ShowUserServlet.java
C:\Users\anonymous\git\crowdfunder\src\main\java\fr\imie\crowdfunder\servlet\RemoveUserServlet.java
C:\Users\anonymous\git\crowdfunder\src\main\java\fr\imie\crowdfunder\dao\CategoryDao.java
C:\Users\anonymous\git\crowdfunder\src\main\java\fr\imie\crowdfunder\dao\ProjectDao.java
C:\Users\anonymous\git\crowdfunder\src\main\java\fr\imie\crowdfunder\entity\User.java
C:\Users\anonymous\git\crowdfunder\src\main\java\fr\imie\crowdfunder\servlet\ListUserServlet.java
C:\Users\anonymous\git\crowdfunder\src\main\java\fr\imie\crowdfunder\servlet\AddUserServlet.java
C:\Users\anonymous\git\crowdfunder\src\main\java\fr\imie\crowdfunder\servlet\LoginServlet.java
C:\Users\anonymous\git\crowdfunder\src\main\java\fr\imie\crowdfunder\servlet\RemoveProjectServlet.java
C:\Users\anonymous\git\crowdfunder\src\main\java\fr\imie\crowdfunder\servlet\AddProjectServlet.java
C:\Users\anonymous\git\crowdfunder\src\main\java\fr\imie\crowdfunder\entity\Category.java
C:\Users\anonymous\git\crowdfunder\src\main\java\fr\imie\crowdfunder\servlet\ShowCategoryServlet.java
